^D:\COUR\YNOVB3\COURS YNOV 2019-2020\C++\PEOJETC++\PEOJETC++\POINTEUR.CPP
/c /ZI /JMC /nologo /W3 /WX- /diagnostics:column /sdl /Od /Oy- /D WIN32 /D _DEBUG /D _CONSOLE /D _UNICODE /D UNICODE /Gm- /EHsc /RTC1 /MDd /GS /fp:precise /permissive- /Zc:wchar_t /Zc:forScope /Zc:inline /Fo"DEBUG\\" /Fd"DEBUG\VC142.PDB" /Gd /TP /analyze- /FC D:\COUR\YNOVB3\COURS YNOV 2019-2020\C++\PEOJETC++\PEOJETC++\POINTEUR.CPP
^D:\COUR\YNOVB3\COURS YNOV 2019-2020\C++\PEOJETC++\PEOJETC++\SOURCE.CPP
/c /ZI /JMC /nologo /W3 /WX- /diagnostics:column /sdl /Od /Oy- /D WIN32 /D _DEBUG /D _CONSOLE /D _UNICODE /D UNICODE /Gm- /EHsc /RTC1 /MDd /GS /fp:precise /permissive- /Zc:wchar_t /Zc:forScope /Zc:inline /Fo"DEBUG\\" /Fd"DEBUG\VC142.PDB" /Gd /TP /analyze- /FC D:\COUR\YNOVB3\COURS YNOV 2019-2020\C++\PEOJETC++\PEOJETC++\SOURCE.CPP
^D:\COUR\YNOVB3\COURS YNOV 2019-2020\C++\PEOJETC++\PEOJETC++\POO.CPP
/c /ZI /JMC /nologo /W3 /WX- /diagnostics:column /sdl /Od /Oy- /D WIN32 /D _DEBUG /D _CONSOLE /D _UNICODE /D UNICODE /Gm- /EHsc /RTC1 /MDd /GS /fp:precise /permissive- /Zc:wchar_t /Zc:forScope /Zc:inline /Fo"DEBUG\\" /Fd"DEBUG\VC142.PDB" /Gd /TP /analyze- /FC D:\COUR\YNOVB3\COURS YNOV 2019-2020\C++\PEOJETC++\PEOJETC++\POO.CPP
^D:\COUR\YNOVB3\COURS YNOV 2019-2020\C++\PEOJETC++\PEOJETC++\POINT.CPP
/c /ZI /JMC /nologo /W3 /WX- /diagnostics:column /sdl /Od /Oy- /D WIN32 /D _DEBUG /D _CONSOLE /D _UNICODE /D UNICODE /Gm- /EHsc /RTC1 /MDd /GS /fp:precise /permissive- /Zc:wchar_t /Zc:forScope /Zc:inline /Fo"DEBUG\\" /Fd"DEBUG\VC142.PDB" /Gd /TP /analyze- /FC D:\COUR\YNOVB3\COURS YNOV 2019-2020\C++\PEOJETC++\PEOJETC++\POINT.CPP
^D:\COUR\YNOVB3\COURS YNOV 2019-2020\C++\PEOJETC++\PEOJETC++\PERSONNAGE.CPP
/c /ZI /JMC /nologo /W3 /WX- /diagnostics:column /sdl /Od /Oy- /D WIN32 /D _DEBUG /D _CONSOLE /D _UNICODE /D UNICODE /Gm- /EHsc /RTC1 /MDd /GS /fp:precise /permissive- /Zc:wchar_t /Zc:forScope /Zc:inline /Fo"DEBUG\\" /Fd"DEBUG\VC142.PDB" /Gd /TP /analyze- /FC D:\COUR\YNOVB3\COURS YNOV 2019-2020\C++\PEOJETC++\PEOJETC++\PERSONNAGE.CPP
^D:\COUR\YNOVB3\COURS YNOV 2019-2020\C++\PEOJETC++\PEOJETC++\SWORDMAN.CPP
/c /ZI /JMC /nologo /W3 /WX- /diagnostics:column /sdl /Od /Oy- /D WIN32 /D _DEBUG /D _CONSOLE /D _UNICODE /D UNICODE /Gm- /EHsc /RTC1 /MDd /GS /fp:precise /permissive- /Zc:wchar_t /Zc:forScope /Zc:inline /Fo"DEBUG\\" /Fd"DEBUG\VC142.PDB" /Gd /TP /analyze- /FC D:\COUR\YNOVB3\COURS YNOV 2019-2020\C++\PEOJETC++\PEOJETC++\SWORDMAN.CPP
^D:\COUR\YNOVB3\COURS YNOV 2019-2020\C++\PEOJETC++\PEOJETC++\VIKING.CPP
/c /ZI /JMC /nologo /W3 /WX- /diagnostics:column /sdl /Od /Oy- /D WIN32 /D _DEBUG /D _CONSOLE /D _UNICODE /D UNICODE /Gm- /EHsc /RTC1 /MDd /GS /fp:precise /permissive- /Zc:wchar_t /Zc:forScope /Zc:inline /Fo"DEBUG\\" /Fd"DEBUG\VC142.PDB" /Gd /TP /analyze- /FC D:\COUR\YNOVB3\COURS YNOV 2019-2020\C++\PEOJETC++\PEOJETC++\VIKING.CPP
^D:\COUR\YNOVB3\COURS YNOV 2019-2020\C++\PEOJETC++\PEOJETC++\HIGHLANDER.CPP
/c /ZI /JMC /nologo /W3 /WX- /diagnostics:column /sdl /Od /Oy- /D WIN32 /D _DEBUG /D _CONSOLE /D _UNICODE /D UNICODE /Gm- /EHsc /RTC1 /MDd /GS /fp:precise /permissive- /Zc:wchar_t /Zc:forScope /Zc:inline /Fo"DEBUG\\" /Fd"DEBUG\VC142.PDB" /Gd /TP /analyze- /FC D:\COUR\YNOVB3\COURS YNOV 2019-2020\C++\PEOJETC++\PEOJETC++\HIGHLANDER.CPP
^D:\COUR\YNOVB3\COURS YNOV 2019-2020\C++\PEOJETC++\PEOJETC++\PEOJETC++.CPP
/c /ZI /JMC /nologo /W3 /WX- /diagnostics:column /sdl /Od /Oy- /D WIN32 /D _DEBUG /D _CONSOLE /D _UNICODE /D UNICODE /Gm- /EHsc /RTC1 /MDd /GS /fp:precise /permissive- /Zc:wchar_t /Zc:forScope /Zc:inline /Fo"DEBUG\\" /Fd"DEBUG\VC142.PDB" /Gd /TP /analyze- /FC D:\COUR\YNOVB3\COURS YNOV 2019-2020\C++\PEOJETC++\PEOJETC++\PEOJETC++.CPP
