^D:\COUR\YNOVB3\COURS YNOV 2019-2020\C++\PEOJETC++\PEOJETC++\DEBUG\HIGHLANDER.OBJ|D:\COUR\YNOVB3\COURS YNOV 2019-2020\C++\PEOJETC++\PEOJETC++\DEBUG\PEOJETC++.OBJ|D:\COUR\YNOVB3\COURS YNOV 2019-2020\C++\PEOJETC++\PEOJETC++\DEBUG\PERSONNAGE.OBJ|D:\COUR\YNOVB3\COURS YNOV 2019-2020\C++\PEOJETC++\PEOJETC++\DEBUG\POINT.OBJ|D:\COUR\YNOVB3\COURS YNOV 2019-2020\C++\PEOJETC++\PEOJETC++\DEBUG\POINTEUR.OBJ|D:\COUR\YNOVB3\COURS YNOV 2019-2020\C++\PEOJETC++\PEOJETC++\DEBUG\POO.OBJ|D:\COUR\YNOVB3\COURS YNOV 2019-2020\C++\PEOJETC++\PEOJETC++\DEBUG\SWORDMAN.OBJ|D:\COUR\YNOVB3\COURS YNOV 2019-2020\C++\PEOJETC++\PEOJETC++\DEBUG\VIKING.OBJ
D:\COUR\YNOVB3\COURS YNOV 2019-2020\C++\PEOJETC++\DEBUG\PEOJETC++.EXE
D:\COUR\YNOVB3\COURS YNOV 2019-2020\C++\PEOJETC++\DEBUG\PEOJETC++.ILK
D:\COUR\YNOVB3\COURS YNOV 2019-2020\C++\PEOJETC++\DEBUG\PEOJETC++.PDB
